…
Like we saw last time, we can use operators to get a little bit more
complicated. Here are the basic operators we have at our disposal:

`>` greater than `>=` greater than or equal to `<` less than `<=` less
than or equal to `!=` not equal to `==` equal to `&` and `|` or `!` not

For example, let’s `filter()` all automobiles that have four or six
cylinders:

``` r
filter(mpg, cyl==4 | cyl ==6)
```

    ## # A tibble: 160 x 11
    ##    manufacturer model displ  year   cyl trans drv     cty   hwy fl    class
    ##    <chr>        <chr> <dbl> <dbl> <dbl> <chr> <chr> <dbl> <dbl> <chr> <chr>
    ##  1 audi         a4      1.8  1999     4 auto… f        18    29 p     comp…
    ##  2 audi         a4      1.8  1999     4 manu… f        21    29 p     comp…
    ##  3 audi         a4      2    2008     4 manu… f        20    31 p     comp…
    ##  4 audi         a4      2    2008     4 auto… f        21    30 p     comp…
    ##  5 audi         a4      2.8  1999     6 auto… f        16    26 p     comp…
    ##  6 audi         a4      2.8  1999     6 manu… f        18    26 p     comp…
    ##  7 audi         a4      3.1  2008     6 auto… f        18    27 p     comp…
    ##  8 audi         a4 q…   1.8  1999     4 manu… 4        18    26 p     comp…
    ##  9 audi         a4 q…   1.8  1999     4 auto… 4        16    25 p     comp…
    ## 10 audi         a4 q…   2    2008     4 manu… 4        20    28 p     comp…
    ## # … with 150 more rows

As we saw last time, we can also use the `%in%` operator to select
multiple values to filter:

``` r
filter(mpg, cyl %in% c(4, 6))
```

    ## # A tibble: 160 x 11
    ##    manufacturer model displ  year   cyl trans drv     cty   hwy fl    class
    ##    <chr>        <chr> <dbl> <dbl> <dbl> <chr> <chr> <dbl> <dbl> <chr> <chr>
    ##  1 audi         a4      1.8  1999     4 auto… f        18    29 p     comp…
    ##  2 audi         a4      1.8  1999     4 manu… f        21    29 p     comp…
    ##  3 audi         a4      2    2008     4 manu… f        20    31 p     comp…
    ##  4 audi         a4      2    2008     4 auto… f        21    30 p     comp…
    ##  5 audi         a4      2.8  1999     6 auto… f        16    26 p     comp…
    ##  6 audi         a4      2.8  1999     6 manu… f        18    26 p     comp…
    ##  7 audi         a4      3.1  2008     6 auto… f        18    27 p     comp…
    ##  8 audi         a4 q…   1.8  1999     4 manu… 4        18    26 p     comp…
    ##  9 audi         a4 q…   1.8  1999     4 auto… 4        16    25 p     comp…
    ## 10 audi         a4 q…   2    2008     4 manu… 4        20    28 p     comp…
    ## # … with 150 more rows

In this example, we are filtering all automobiles that are more than 6
cylinders and made before 2008:

``` r
filter(mpg, cyl >= 6 & year < 2008)
```

    ## # A tibble: 72 x 11
    ##    manufacturer model displ  year   cyl trans drv     cty   hwy fl    class
    ##    <chr>        <chr> <dbl> <dbl> <dbl> <chr> <chr> <dbl> <dbl> <chr> <chr>
    ##  1 audi         a4      2.8  1999     6 auto… f        16    26 p     comp…
    ##  2 audi         a4      2.8  1999     6 manu… f        18    26 p     comp…
    ##  3 audi         a4 q…   2.8  1999     6 auto… 4        15    25 p     comp…
    ##  4 audi         a4 q…   2.8  1999     6 manu… 4        17    25 p     comp…
    ##  5 audi         a6 q…   2.8  1999     6 auto… 4        15    24 p     mids…
    ##  6 chevrolet    c150…   5.7  1999     8 auto… r        13    17 r     suv  
    ##  7 chevrolet    corv…   5.7  1999     8 manu… r        16    26 p     2sea…
    ##  8 chevrolet    corv…   5.7  1999     8 auto… r        15    23 p     2sea…
    ##  9 chevrolet    k150…   5.7  1999     8 auto… 4        11    15 r     suv  
    ## 10 chevrolet    k150…   6.5  1999     8 auto… 4        14    17 d     suv  
    ## # … with 62 more rows

Yout turn\! Try using `filter()` with some operators to filter the
`starwars` data frame in two or three different ways. (For example,
filtering the tall males, or those who have blue or blue-gray eyes and
are from anywhere but Tatooine.)

``` r
filter(starwars, height >= 180 & gender == "male")
```

    ## # A tibble: 40 x 10
    ##    name  height  mass hair_color skin_color eye_color birth_year gender
    ##    <chr>  <dbl> <dbl> <chr>      <chr>      <chr>          <dbl> <chr> 
    ##  1 Dart…    202 136   none       white      yellow          41.9 male  
    ##  2 Bigg…    183  84   black      light      brown           24   male  
    ##  3 Obi-…    182  77   auburn, w… fair       blue-gray       57   male  
    ##  4 Anak…    188  84   blond      fair       blue            41.9 male  
    ##  5 Wilh…    180  NA   auburn, g… fair       blue            64   male  
    ##  6 Chew…    228 112   brown      unknown    blue           200   male  
    ##  7 Han …    180  80   brown      fair       brown           29   male  
    ##  8 Jek …    180 110   brown      fair       blue            NA   male  
    ##  9 Boba…    183  78.2 black      fair       brown           31.5 male  
    ## 10 Bossk    190 113   none       green      red             53   male  
    ## # … with 30 more rows, and 2 more variables: homeworld <chr>,
    ## #   species <chr>
…
## Arrange rows with `arrange`

The function `arrange()` changes the order of rows within a data frame.
You can think of it as analogous to the ‘sort’ function in Excel. First,
we tell it what data frame we would like to re-order and then which
variables(s) to order by:

``` r
arrange(mpg, cty)
```

    ## # A tibble: 234 x 11
    ##    manufacturer model displ  year   cyl trans drv     cty   hwy fl    class
    ##    <chr>        <chr> <dbl> <dbl> <dbl> <chr> <chr> <dbl> <dbl> <chr> <chr>
    ##  1 dodge        dako…   4.7  2008     8 auto… 4         9    12 e     pick…
    ##  2 dodge        dura…   4.7  2008     8 auto… 4         9    12 e     suv  
    ##  3 dodge        ram …   4.7  2008     8 auto… 4         9    12 e     pick…
    ##  4 dodge        ram …   4.7  2008     8 manu… 4         9    12 e     pick…
    ##  5 jeep         gran…   4.7  2008     8 auto… 4         9    12 e     suv  
    ##  6 chevrolet    c150…   5.3  2008     8 auto… r        11    15 e     suv  
    ##  7 chevrolet    k150…   5.3  2008     8 auto… 4        11    14 e     suv  
    ##  8 chevrolet    k150…   5.7  1999     8 auto… 4        11    15 r     suv  
    ##  9 dodge        cara…   3.3  2008     6 auto… f        11    17 e     mini…
    ## 10 dodge        dako…   5.2  1999     8 manu… 4        11    17 r     pick…
    ## # … with 224 more rows
Just like with `filter()` and `slice()`, this new sorted order is not
saved to the data frame unless you use the assignment operator:

``` r
mpg_sorted <- arrange(mpg, cty)
```

Also, the default is ascending order unless you specify that you want
descending order with `desc()`:

``` r
arrange(mpg, desc(cty))
```

    ## # A tibble: 234 x 11
    ##    manufacturer model displ  year   cyl trans drv     cty   hwy fl    class
    ##    <chr>        <chr> <dbl> <dbl> <dbl> <chr> <chr> <dbl> <dbl> <chr> <chr>
    ##  1 volkswagen   new …   1.9  1999     4 manu… f        35    44 d     subc…
    ##  2 volkswagen   jetta   1.9  1999     4 manu… f        33    44 d     comp…
    ##  3 volkswagen   new …   1.9  1999     4 auto… f        29    41 d     subc…
    ##  4 honda        civic   1.6  1999     4 manu… f        28    33 r     subc…
    ##  5 toyota       coro…   1.8  2008     4 manu… f        28    37 r     comp…
    ##  6 honda        civic   1.8  2008     4 manu… f        26    34 r     subc…
    ##  7 toyota       coro…   1.8  1999     4 manu… f        26    35 r     comp…
    ##  8 toyota       coro…   1.8  2008     4 auto… f        26    35 r     comp…
    ##  9 honda        civic   1.6  1999     4 manu… f        25    32 r     subc…
    ## 10 honda        civic   1.8  2008     4 auto… f        25    36 r     subc…
    ## # … with 224 more rows

\*Note: Missing values (which we don’t have any of\!) are sorted to the
end.

If you specify more than one variable within the function, `arrange()`
will sort by that variable after the preceding one (similar to
‘sort/then by’ in Excel).

``` r
arrange(mpg, cty, class)
```

    ## # A tibble: 234 x 11
    ##    manufacturer model displ  year   cyl trans drv     cty   hwy fl    class
    ##    <chr>        <chr> <dbl> <dbl> <dbl> <chr> <chr> <dbl> <dbl> <chr> <chr>
    ##  1 dodge        dako…   4.7  2008     8 auto… 4         9    12 e     pick…
    ##  2 dodge        ram …   4.7  2008     8 auto… 4         9    12 e     pick…
    ##  3 dodge        ram …   4.7  2008     8 manu… 4         9    12 e     pick…
    ##  4 dodge        dura…   4.7  2008     8 auto… 4         9    12 e     suv  
    ##  5 jeep         gran…   4.7  2008     8 auto… 4         9    12 e     suv  
    ##  6 dodge        cara…   3.3  2008     6 auto… f        11    17 e     mini…
    ##  7 dodge        dako…   5.2  1999     8 manu… 4        11    17 r     pick…
    ##  8 dodge        dako…   5.2  1999     8 auto… 4        11    15 r     pick…
    ##  9 dodge        ram …   5.2  1999     8 auto… 4        11    15 r     pick…
    ## 10 dodge        ram …   5.2  1999     8 manu… 4        11    16 r     pick…
    ## # … with 224 more rows

Try re-ordering the rows of the `starwars` data frame. (For example,
re-order by homeworld and then alphabetically by first name.)

``` r
arrange(starwars, homeworld, name)
```

    ## # A tibble: 87 x 10
    ##    name  height  mass hair_color skin_color eye_color birth_year gender
    ##    <chr>  <dbl> <dbl> <chr>      <chr>      <chr>          <dbl> <chr> 
    ##  1 Bail…    191    NA black      tan        brown             67 male  
    ##  2 Leia…    150    49 brown      light      brown             19 female
    ##  3 Raym…    188    79 brown      light      brown             NA male  
    ##  4 Ratt…     79    15 none       grey, blue unknown           NA male  
    ##  5 Lobot    175    79 none       light      blue              37 male  
    ##  6 Jek …    180   110 brown      fair       blue              NA male  
    ##  7 Nute…    191    90 none       mottled g… red               NA male  
    ##  8 Ki-A…    198    82 white      pale       yellow            92 male  
    ##  9 Mas …    196    NA none       blue       blue              NA male  
    ## 10 Mon …    150    NA auburn     fair       blue              48 female
    ## # … with 77 more rows, and 2 more variables: homeworld <chr>,
    ## #   species <chr>
…
